…
Alabama had the most casualties (3,937) followed by Oklahoma (2,500), Missouri (2,025), Arkansas (1,759), Texas (1,704), and Tennessee (1,678).

sfdf <- Torn.sfdf %>%
  filter(cas > 0) %>%
  group_by(st) %>%
  summarize(nT = n(),
            nC = sum(cas),
            nF = sum(fat),
            ratio = nC/nT) %>%
  arrange(desc(nC))
st_geometry(sfdf) = NULL #removes the geometry column
sfdf

## # A tibble: 44 x 5
##       st    nT    nC    nF     ratio
##  * <chr> <int> <int> <int>     <dbl>
##  1    AL   159  3937   347 24.761006
##  2    OK   108  2500   132 23.148148
##  3    MO   110  2025   219 18.409091
##  4    AR   126  1759   114 13.960317
##  5    TX   193  1704   100  8.829016
##  6    TN   133  1678   149 12.616541
##  7    GA   125  1610    94 12.880000
##  8    MS   130  1400    98 10.769231
##  9    KY    94  1051    71 11.180851
## 10    NC    88   985    46 11.193182
## # ... with 34 more rows
…
